The State of Data Science (Part 3) | David Nield
…
## See spec(...) for full column specifications.

You can see that we have an incredible amount of variables here, 246 to be exact.

But there weren’t 246 questions on the survey: these variables are in a wide format with respect to the “Check all the apply” questions, which I grouped together by using the same prefix (e.g. “role_”) for variables associated with the same question.

Let’s take a glimpse at the data.

kaggle

## # A tibble: 19,718 x 246
##    surveyduration age   gender gender_other_te… country_of_resi… education
##    <chr>          <chr> <chr>  <chr>            <chr>            <chr>    
##  1 Duration (in … What… What … What is your ge… In which countr… What is …
##  2 510            22-24 Male   -1               France           Master’s…
##  3 423            40-44 Male   -1               India            Professi…
##  4 83             55-59 Female -1               Germany          Professi…
##  5 391            40-44 Male   -1               Australia        Master’s…
##  6 392            22-24 Male   -1               India            Bachelor…
##  7 470            50-54 Male   -1               France           Master’s…
##  8 529            22-24 Male   -1               India            Master’s…
##  9 624            22-24 Female -1               United States o… Bachelor…
## 10 214            22-24 Male   -1               United States o… Bachelor…
## # … with 19,708 more rows, and 240 more variables: job_title <chr>,
## #   job_title_other_text <chr>, company_size <chr>,
## #   datasci_team_size <chr>, company_ML_incorporation <chr>,
## #   role_influence_business_decisions <chr>,
## #   role_build_or_run_data_infrastructure <chr>,
## #   role_build_ML_prototypes <chr>, role_build_ML_for_production <chr>,
## #   role_improve_existing_ML_models <chr>, role_ML_research <chr>,
## #   role_none_of_above <chr>, role_other <chr>, role_other_text <chr>,
## #   yearly_compensation <chr>,
…
Here we see that the first row contains the text of the question, not responses. Let’s drop that. We could use kaggle[-1,] but I’m not a fan of dropping rows via indexing, just in case the line gets accidentally run more than once and the top row keeps getting shaved off. Let’s make a more explicit filter based on text in the first row to drop it. While we’re at it, let’s filter to Americans to be consistent with Part 1 of this series.

kaggle <- kaggle %>% 
  filter(!str_detect(surveyduration, "Duration"),
         country_of_residence == "United States of America")

kaggle

## # A tibble: 3,085 x 246
##    surveyduration age   gender gender_other_te… country_of_resi… education
##    <chr>          <chr> <chr>  <chr>            <chr>            <chr>    
##  1 624            22-24 Female -1               United States o… Bachelor…
##  2 214            22-24 Male   -1               United States o… Bachelor…
##  3 372            30-34 Male   -1               United States o… Master’s…
##  4 485            50-54 Female -1               United States o… Master’s…
##  5 979            35-39 Male   -1               United States o… Bachelor…
##  6 518            25-29 Male   -1               United States o… Doctoral…
##  7 402            30-34 Female -1               United States o… Master’s…
##  8 1341           30-34 Female -1               United States o… Doctoral…
##  9 682            35-39 Male   -1               United States o… Bachelor…
## 10 443            30-34 Male   -1               United States o… Master’s…
## # … with 3,075 more rows, and 240 more variables: job_title <chr>,
## #   job_title_other_text <chr>, company_size <chr>,
## #   datasci_team_size <chr>, company_ML_incorporation <chr>,
## #   role_influence_business_decisions <chr>,
## #   role_build_or_run_data_infrastructure <chr>,
## #   role_build_ML_prototypes <chr>, role_build_ML_for_production <chr>,
## #   role_improve_existing_ML_models <chr>, role_ML_research <chr>,
## #   role_none_of_above <chr>, role_other <chr>, role_other_text <chr>,
## #   yearly_compensation <chr>,
…
