Introduction to the {tidymodels} Machine Learning Ecosystem | David Nield
…
Now we can “juice” the prepared recipes, which gives us our preprocessed training set. Lets take a look at our PCA extraction.

ames_rec_trained %>% 
  juice() %>% 
  select(starts_with("PC"))

## # A tibble: 2,199 x 7
##         PC1    PC2    PC3     PC4     PC5     PC6     PC7
##       <dbl>  <dbl>  <dbl>   <dbl>   <dbl>   <dbl>   <dbl>
##  1 -1.79     1.20   0.783  0.194   0.120   0.204   2.13  
##  2 -0.625    1.51   0.164 -0.0112  0.0919  1.50    0.256 
##  3 -2.57    -0.201 -0.677  0.723   1.08   -0.455  -0.799 
##  4  0.339    0.932  0.400 -0.230  -0.486   0.819   0.846 
##  5  0.159    0.903  0.385 -0.360  -0.390   1.62    0.510 
##  6 -0.00598 -0.337 -0.603  0.247   0.395  -0.0660 -0.781 
##  7 -0.172   -0.277 -0.689 -0.116  -0.219  -0.772  -0.838 
##  8  0.568   -1.19   0.716 -0.382  -0.347   0.243   0.715 
##  9  0.0123   1.80   0.152 -0.217  -0.0602  2.17   -0.0132
## 10  1.06    -1.55   0.423 -0.211  -0.251  -0.520   0.318 
## # … with 2,189 more rows
…
{tune} also provides ways to create non-regular grids as well.
* Random grids generated using grid_random() will uniformly sample the parameter space.
* Space-filling designs (SFD) generated using grid_max_entropy() will try to keep candidate values away from one another in order to more efficiently cover the parameter space.

sfd_grid <- grid_max_entropy(mixture_param, size = 25)

sfd_grid

## # A tibble: 25 x 2
##     penalty mixture
##       <dbl>   <dbl>
##  1 1.21e- 8  0.614 
##  2 1.32e- 1  0.679 
##  3 1.20e-10  0.269 
##  4 3.90e- 9  0.414 
##  5 8.38e- 6  0.0756
##  6 4.02e- 1  0.838 
##  7 5.94e-10  0.504 
##  8 1.83e- 1  0.177 
##  9 3.61e- 3  0.866 
## 10 2.86e- 7  0.856 
## # … with 15 more rows
…
